"","Period.Range","Undergraduate","Graduate"
"1","04/30/11",1120,433
"2","05/07/11",1797,106
"3","05/21/11",595,61
"4","05/28/11",365,62
"5","06/04/11",349,46
"6","06/11/11",306,22
"7","06/18/11",702,45
"8","06/25/11",691,22
"9","07/02/11",662,48
"10","07/09/11",412,28
"11","07/16/11",438,43
"12","07/23/11",254,53
"13","07/30/11",483,34
"14","08/06/11",345,46
"15","08/13/11",220,36
"16","08/20/11",160,18
"17","08/27/11",108,13
"18","09/03/11",58,9
"19","09/10/11",22,6
"20","09/17/11",28,2
"21","09/24/11",24,1
"22","10/01/11",10,0
